id_client,numero_bail,date_signature,date_debut,date_fin,jour_paiement,date_revision_charge,date_reivison_loyer,loyer,charge,caution,id_immeuble,id_lot,id_locataire,id_garant
198,201,2019-07-17,2019-10-29,2019-08-02,11,2019-07-19,2019-08-22,190,44,812,176,27,14,42
78,202,2019-07-09,2019-09-30,2019-11-23,27,2019-08-01,2019-08-26,290,139,1254,101,98,50,154
155,203,2019-08-25,2019-12-03,2019-12-15,6,2019-07-20,2019-11-14,472,178,1442,3,272,66,197
105,204,2019-10-11,2019-10-20,2020-01-19,26,2019-12-29,2019-11-11,1563,81,524,137,37,191,103
128,205,2019-08-01,2019-06-25,2019-10-10,5,2019-08-30,2019-08-23,95,192,238,99,65,111,192
172,206,2019-10-30,2019-10-06,2019-12-31,8,2020-01-02,2019-10-24,1848,114,96,49,281,153,106
56,207,2019-08-04,2019-08-31,2019-09-26,7,2019-09-12,2019-09-10,1974,47,765,136,19,99,171
1,208,2019-12-23,2020-01-10,2019-09-23,29,2019-11-24,2019-08-05,1264,143,214,180,147,56,27
23,209,2019-07-13,2019-11-22,2019-10-24,24,2019-10-25,2020-01-21,1771,133,988,174,66,41,106
169,210,2020-01-03,2019-07-27,2019-12-13,2,2019-09-16,2019-07-20,30,22,442,31,230,130,93
87,211,2019-12-13,2020-01-18,2019-10-07,2,2019-08-18,2020-01-19,1256,134,65,145,158,64,104
152,212,2019-07-15,2019-09-13,2019-10-20,15,2019-09-22,2019-08-04,1061,66,984,12,198,158,9
89,213,2019-10-04,2019-07-29,2020-01-20,3,2019-09-28,2019-08-23,931,149,1945,82,187,31,69
48,214,2019-07-10,2019-12-17,2019-09-21,23,2019-10-09,2019-07-02,1262,127,1967,178,167,118,139
60,215,2019-08-23,2019-07-27,2019-12-17,27,2019-08-31,2019-08-21,536,73,1631,101,210,86,199
36,216,2019-09-25,2019-09-03,2019-12-05,24,2019-07-14,2019-11-27,1306,30,1977,125,224,83,68
108,217,2019-09-24,2019-09-05,2019-08-04,9,2019-07-10,2019-11-22,173,16,62,113,202,63,65
39,218,2019-11-16,2020-01-16,2019-07-04,2,2019-10-15,2019-07-23,21,83,192,81,165,46,53
136,219,2019-09-28,2019-12-26,2019-08-27,30,2019-11-03,2019-09-15,1586,1,1105,132,144,190,39
55,220,2020-01-10,2019-09-04,2019-08-12,4,2019-11-04,2019-11-02,1771,63,1770,197,165,170,140
111,221,2019-08-23,2019-10-13,2020-01-31,29,2019-07-21,2019-10-24,1028,79,1133,197,77,93,33
196,222,2020-01-21,2019-06-30,2020-01-04,21,2019-06-29,2019-11-18,819,174,988,179,100,102,196
25,223,2019-11-07,2019-08-27,2019-07-13,18,2019-07-15,2019-11-25,1529,13,1296,65,295,119,182
84,224,2019-11-29,2019-07-27,2019-11-17,12,2019-11-10,2019-07-11,1992,70,1741,55,44,171,164
43,225,2019-11-23,2019-08-03,2019-10-23,29,2019-07-12,2019-10-05,1331,19,330,180,178,7,37
147,226,2019-10-24,2019-10-07,2019-09-15,28,2019-11-26,2019-11-18,32,87,43,156,145,72,199
41,227,2019-12-05,2019-07-03,2019-08-08,25,2019-12-06,2019-08-14,1431,59,1077,101,39,144,53
77,228,2019-07-05,2019-09-27,2019-06-25,6,2020-01-17,2019-12-01,1506,158,1631,32,123,10,22
8,229,2019-10-25,2019-12-01,2019-09-04,20,2019-10-22,2019-12-02,320,66,1275,173,114,50,96
188,230,2019-10-26,2019-12-07,2019-07-06,10,2019-08-07,2019-11-05,321,45,373,190,38,29,149
70,231,2019-12-04,2019-08-04,2020-01-14,1,2019-07-17,2019-09-27,1240,185,1550,36,285,36,1
181,232,2019-10-29,2019-11-26,2019-10-16,20,2019-07-16,2019-08-31,1889,61,1382,13,178,183,151
117,233,2019-09-04,2019-09-21,2019-11-05,13,2019-11-26,2019-07-20,964,33,1228,108,230,55,154
187,234,2019-10-15,2019-09-18,2019-11-17,22,2019-08-25,2019-09-18,219,36,1151,164,226,47,41
176,235,2020-01-21,2020-01-26,2020-01-13,4,2020-01-17,2019-10-02,131,196,1442,115,86,5,77
146,236,2020-01-22,2019-12-09,2020-01-04,16,2019-06-26,2019-09-11,28,7,76,73,2,20,66
114,237,2019-07-29,2019-08-29,2019-07-07,2,2019-07-19,2019-09-21,598,49,196,172,293,25,137
109,238,2019-07-03,2019-10-27,2019-08-22,10,2019-06-27,2019-08-06,792,148,513,90,74,89,190
158,239,2019-08-04,2019-10-22,2019-10-30,15,2019-10-28,2019-09-29,991,7,1338,38,227,192,107
195,240,2019-08-18,2019-11-01,2019-08-18,30,2019-12-15,2020-01-05,838,92,1507,126,1,74,69
151,241,2019-10-28,2020-01-20,2019-11-04,27,2019-07-01,2019-09-08,1215,127,81,4,41,82,178
1,242,2019-10-30,2019-08-04,2019-08-24,30,2020-01-26,2019-09-16,1895,56,467,5,45,132,160
130,243,2019-12-18,2019-07-19,2020-01-31,19,2019-12-31,2019-11-22,665,143,678,199,116,195,23
30,244,2019-12-15,2019-12-13,2019-08-25,11,2019-07-27,2020-01-27,290,105,804,4,36,96,138
151,245,2019-11-19,2020-01-12,2019-07-30,25,2019-12-14,2019-12-07,1678,85,1211,184,292,45,150
8,246,2019-08-31,2019-08-24,2019-07-02,28,2019-09-01,2019-06-28,71,129,1471,109,50,6,184
185,247,2019-10-22,2019-11-06,2019-12-02,10,2019-08-30,2020-01-14,1413,133,737,20,49,58,165
66,248,2019-09-13,2019-11-01,2019-10-18,6,2019-12-07,2019-11-24,727,184,460,123,83,38,35
21,249,2019-07-27,2019-10-15,2019-10-21,11,2019-08-28,2019-11-04,532,76,1585,119,250,40,109
145,250,2019-10-13,2019-12-01,2020-01-11,8,2019-10-30,2020-01-20,893,131,68,49,113,37,129
131,251,2019-08-22,2019-08-31,2019-07-01,2,2019-11-12,2019-10-02,1371,45,1186,145,44,171,30
124,252,2019-12-11,2019-11-01,2019-09-11,2,2019-12-27,2019-10-23,1183,17,1565,22,40,94,175
188,253,2019-11-23,2019-11-20,2019-07-23,21,2019-12-13,2019-08-18,499,173,1796,70,79,117,91
140,254,2019-11-09,2020-01-14,2019-07-05,15,2019-12-16,2019-10-30,662,118,900,186,171,79,125
157,255,2019-09-13,2019-07-16,2019-07-20,15,2020-01-12,2020-01-09,1603,78,1691,17,279,170,108
78,256,2019-12-29,2019-11-04,2019-11-13,20,2019-09-07,2019-09-10,258,116,117,101,120,149,35
105,257,2020-01-30,2019-11-13,2019-11-27,23,2019-06-29,2019-12-01,1272,16,29,134,121,114,194
142,258,2019-09-23,2019-10-28,2019-10-04,2,2019-11-04,2019-07-23,1715,9,1193,140,160,37,133
140,259,2019-07-17,2019-09-21,2019-08-12,9,2019-11-23,2019-10-15,534,135,1063,47,105,81,173
10,260,2020-01-30,2019-10-10,2019-10-08,10,2019-11-12,2019-10-15,398,99,1371,25,173,22,59
21,261,2019-08-02,2019-10-27,2020-01-26,4,2019-09-28,2019-11-23,1834,150,1235,90,294,194,162
168,262,2019-07-23,2019-10-22,2020-01-05,15,2019-10-15,2019-12-02,722,172,1673,106,191,33,14
170,263,2019-10-28,2020-01-22,2020-01-03,9,2019-12-26,2019-08-20,1261,126,822,23,173,118,188
186,264,2019-10-15,2019-07-08,2019-08-26,24,2020-01-28,2019-06-28,1651,136,822,102,5,132,190
19,265,2019-08-22,2019-12-07,2020-01-30,15,2019-10-16,2019-12-31,1964,6,1943,57,32,102,89
13,266,2020-01-23,2019-10-11,2019-12-01,26,2020-01-21,2020-01-21,1885,25,1846,13,69,160,21
168,267,2019-10-11,2019-11-07,2019-09-26,2,2019-11-08,2020-01-27,1424,49,960,23,236,146,76
123,268,2019-06-28,2019-11-06,2019-10-14,15,2019-11-30,2019-12-11,1788,135,176,45,59,197,62
82,269,2019-08-29,2019-11-02,2019-10-11,17,2019-08-09,2019-10-08,251,189,505,59,172,111,10
42,270,2019-12-02,2019-09-02,2019-10-17,24,2019-10-03,2019-09-18,1169,50,1694,8,159,48,184
120,271,2020-01-23,2020-01-07,2019-07-19,18,2019-11-20,2019-08-21,25,48,609,73,279,151,127
148,272,2019-07-05,2020-01-16,2019-11-06,12,2019-10-25,2019-08-27,103,7,1058,60,5,112,157
78,273,2019-12-07,2019-11-17,2020-01-10,23,2019-12-23,2019-12-09,768,169,1862,161,140,129,35
194,274,2019-07-07,2019-11-03,2019-11-12,1,2019-07-19,2019-07-29,629,97,298,52,41,45,156
192,275,2019-11-29,2019-07-28,2020-01-06,16,2019-12-29,2019-08-14,1851,70,673,26,60,70,156
108,276,2019-08-25,2019-07-21,2019-08-22,6,2019-07-31,2019-11-23,235,186,1306,8,75,59,110
96,277,2020-01-29,2019-10-21,2019-12-15,14,2019-12-19,2019-09-12,1733,114,1097,174,192,156,15
195,278,2019-09-20,2019-08-31,2019-07-13,26,2019-12-23,2019-08-30,90,111,1804,113,195,6,48
102,279,2019-12-02,2019-07-21,2019-07-31,2,2019-11-05,2019-09-19,1407,13,1457,126,59,104,88
189,280,2019-08-16,2019-07-30,2019-07-29,16,2019-11-18,2019-10-01,1016,99,1388,170,224,70,8
42,281,2019-07-07,2019-12-28,2019-10-02,1,2020-01-15,2019-11-23,1902,119,1298,105,112,169,128
103,282,2019-11-05,2019-08-27,2019-09-10,27,2019-07-18,2019-11-27,530,7,136,118,97,168,113
180,283,2019-06-25,2019-08-06,2019-12-18,16,2019-12-20,2020-01-11,1950,144,419,125,50,56,14
156,284,2019-10-18,2019-12-03,2019-07-29,7,2019-12-17,2019-10-12,1458,75,176,32,227,117,127
106,285,2019-09-04,2019-08-12,2019-07-10,24,2019-09-13,2019-12-02,1535,23,183,94,92,113,25
94,286,2020-01-06,2019-09-11,2019-09-10,17,2019-08-20,2019-11-08,989,166,333,155,202,72,130
22,287,2019-07-18,2019-11-09,2019-11-25,15,2019-07-23,2019-08-24,347,25,1148,28,29,151,136
187,288,2019-07-30,2019-12-26,2019-09-13,17,2019-12-06,2019-10-19,100,176,542,139,43,137,170
86,289,2019-12-06,2019-12-31,2019-07-31,23,2019-10-05,2019-11-24,153,47,1844,78,231,178,61
138,290,2019-12-31,2019-07-24,2019-10-30,28,2019-12-28,2019-10-05,1973,184,299,88,133,85,8
128,291,2019-10-14,2019-10-27,2019-10-11,16,2019-12-17,2019-07-16,1652,24,1771,158,206,9,135
170,292,2019-11-05,2019-11-23,2019-12-05,27,2019-12-28,2019-08-19,1464,84,1359,47,6,198,105
195,293,2019-11-06,2019-12-14,2019-08-09,25,2020-01-11,2019-12-05,148,76,1186,37,247,145,154
8,294,2019-12-28,2019-09-08,2019-12-13,7,2019-11-01,2019-09-13,1032,46,317,138,105,60,170
54,295,2019-09-14,2019-11-30,2019-12-12,23,2019-11-02,2019-09-08,1308,165,1132,79,24,16,79
166,296,2019-07-31,2019-10-29,2019-10-04,25,2019-07-12,2019-08-04,978,117,1285,107,201,89,150
5,297,2020-01-21,2020-01-24,2019-11-04,2,2019-12-02,2019-11-16,1694,0,299,137,171,42,105
98,298,2019-09-20,2020-01-18,2019-10-04,13,2019-12-24,2019-06-30,1247,42,492,190,179,61,96
123,299,2019-09-29,2019-10-04,2019-12-16,8,2019-11-06,2019-08-02,1374,6,1676,123,47,43,64
36,300,2019-09-26,2019-10-24,2019-08-16,22,2019-09-19,2019-10-21,278,61,362,187,158,47,180
