id_immeuble,nom,surface,latitude,longitude,date_construction
1,Dillard,435.4,50.5,1.5,1942-09-19
2,Reba,171.6,44.9,-4,1978-11-22
3,Guadalupe,127.1,46.9,6.4,1932-01-17
4,Lenora,421.3,48.1,8,1958-02-21
5,Twila,146.3,50.2,1.1,1993-10-28
6,Wilkins,134.1,49.6,-0.9,1956-07-23
7,Chase,293.3,48.2,0.3,1952-03-26
8,Josie,195.9,42.5,0.4,1936-09-02
9,Elliott,368.0,42.9,5.3,1951-02-10
10,Heath,470.1,47.1,-1.6,1900-06-11
11,Sara,8.8,50.3,1.5,1970-11-22
12,Sellers,385.8,46.4,-1,1990-07-14
13,Freda,28.6,48.8,2,2009-03-13
14,English,96.3,46.5,5.4,1962-12-05
15,Erin,406.1,49.4,3.4,1904-07-25
16,Gill,281.7,46.3,7.4,1935-02-09
17,Ester,202.7,49.5,-3.3,2014-12-23
18,Mai,180.7,42.7,2.3,1985-12-01
19,Reese,307.2,42.5,6.5,1993-08-04
20,Jerry,117.8,43.7,1.9,1902-11-27
21,Aurora,457.0,44.5,6.4,1960-04-14
22,Cox,222.6,50.4,7.7,2008-11-27
23,Rachel,323.6,48.7,4,1935-07-07
24,Juliette,78.4,46.4,4.4,1918-07-04
25,Diann,412.4,43.1,4.5,1918-02-23
26,Deloris,426.7,44.8,1.3,1905-06-16
27,Kerri,417.3,46.2,5.3,1939-02-18
28,Spence,378.0,49.1,5.3,1899-02-20
29,Hughes,337.9,46.2,2.8,1971-01-20
30,Myers,242.4,48,4.4,1968-02-03
31,Mccall,160.4,44.8,1.5,1939-07-20
32,Bertha,309.3,44.9,4.3,1940-07-05
33,Wiley,110.1,49.5,0.3,1923-12-14
34,Lyons,101.5,50.1,3.6,1900-09-27
35,Collier,270.7,44.2,1.1,1996-08-11
36,Robin,58.0,44.9,2.9,1913-09-26
37,Lidia,434.3,46.4,-1,1951-07-26
38,Tami,258.8,43.7,-3,1997-02-12
39,Harrington,456.8,43.9,4.6,1951-10-18
40,Dona,346.4,48.5,6.2,2011-12-28
41,Louise,398.4,49,7.4,2012-08-21
42,Thompson,359.4,48.3,4,1924-06-28
43,Sonja,414.9,49.4,7.4,2014-06-12
44,Steele,80.7,47.1,8,1986-03-05
45,Frazier,306.8,45.8,-2.3,1974-11-07
46,Mays,310.6,44.3,0.8,1996-02-14
47,Morin,293.2,44.1,1.1,1912-03-17
48,Lawrence,249.5,50.6,-4.2,1955-12-31
49,Burris,60.5,51,6.6,1901-09-24
50,Riggs,287.2,49.9,3.5,2004-09-21
51,Delgado,171.7,42.6,-1.4,1981-10-12
52,Marion,133.3,42.6,0,1972-08-22
53,Joyner,347.7,48.7,-0.3,1925-09-05
54,Winters,186.1,43.1,2.8,1998-01-11
55,Rhonda,483.5,43.3,-1.1,1946-01-05
56,Aida,357.0,46.7,5,1997-10-19
57,Tran,466.1,45.6,0.7,2017-02-27
58,Le,257.1,50,4.6,1995-04-15
59,Osborn,71.1,45.8,-3.6,1991-04-17
60,Mercado,96.8,47.7,3.2,2000-01-28
61,Sybil,327.4,49.2,3.7,1965-01-07
62,Candace,492.7,49.6,3.7,1979-06-22
63,Nieves,107.7,42.8,2.8,1975-02-19
64,Lloyd,191.0,44.1,2.1,2002-03-03
65,Kennedy,413.0,46.7,-2.7,1899-03-05
66,Fleming,346.0,43.7,1.5,1920-07-15
67,Barbara,326.1,49.7,1.8,1999-08-18
68,Marietta,424.4,46.9,3.5,1902-09-30
69,Pam,333.4,50.2,2,1967-04-27
70,Benton,428.7,48.9,7.6,1952-08-15
71,Leblanc,99.0,46.8,7.4,1929-03-17
72,Penelope,362.0,43,7.6,1986-09-04
73,Dixon,297.4,46.2,5.6,1973-12-18
74,Selma,27.0,51,-2.1,1970-05-15
75,Eva,349.2,43.5,5.9,1922-12-20
76,Wood,200.1,49.3,0.8,2012-01-15
77,Rochelle,168.2,50.3,-3.1,1922-06-05
78,Fox,83.0,43.8,5.8,1985-12-15
79,Randolph,23.7,47,0.9,2005-08-12
80,Gamble,156.9,48.7,0.5,1962-09-15
81,Lauri,287.4,45.1,-2.7,1939-09-27
82,Cochran,383.8,48.1,-0.2,1977-06-08
83,Vaughan,257.3,45.2,-4.5,1957-12-10
84,Lolita,42.2,44.4,2.8,1928-01-08
85,Taylor,119.3,50.9,3.3,1925-11-30
86,Young,276.3,48.2,3.8,1914-04-28
87,Rivera,395.4,42.5,4.4,1995-04-28
88,Concetta,30.6,47.7,7.4,2006-12-27
89,Kramer,137.2,47.1,1.6,1911-11-08
90,Roberta,82.6,50.7,6.7,1966-10-27
91,Flossie,97.5,43.6,0.1,1990-06-01
92,Adrienne,130.4,43.2,7.9,1950-08-13
93,Cortez,43.4,43.9,-3.3,1918-11-29
94,Latasha,360.8,47.1,0.3,2016-08-03
95,Blanca,473.1,43.1,3.3,1969-06-25
96,Reyna,411.5,45.2,0.1,1985-06-01
97,Beard,336.9,49.9,5.1,1934-05-05
98,Jenkins,279.3,48.2,7,1934-08-11
99,Freeman,439.2,49.4,5.8,1959-01-07
100,Livingston,269.6,50.9,6,1942-02-12
