id_immeuble,id_lot,surface,niveau_eco,adresse,id_ville
165,1,19.1,A,56 Campus Place,22652
129,2,73.2,B,54 Apollo Street,2269
67,3,31.0,B,99 Jackson Place,2496
135,4,159.4,B,27 Saratoga Avenue,6715
132,5,88.8,F,65 Norfolk Street,7472
163,6,59.2,F,75 Commerce Street,23970
102,7,59.2,F,94 Cambridge Place,26738
57,8,71.0,C,81 Lincoln Terrace,17231
75,9,99.2,C,4 Colby Court,9610
44,10,160.2,C,7 Danforth Street,14001
141,11,148.8,E,48 Cypress Court,28508
68,12,169.4,C,86 McKinley Avenue,21768
152,13,140.8,E,39 Covert Street,18672
105,14,141.2,B,46 Newport Street,11193
41,15,105.4,A,2 Norman Avenue,16417
183,16,160.5,E,32 Johnson Avenue,17427
91,17,126.3,D,19 Nixon Court,33983
106,18,67.6,D,23 Narrows Avenue,18218
170,19,179.4,G,65 Chase Court,3929
90,20,146.5,B,97 Caton Place,33100
93,21,187.3,B,86 Emerson Place,29274
94,22,157.7,F,37 Mill Street,26998
200,23,19.1,F,70 Ocean Avenue,12934
18,24,143.6,E,84 Vista Place,20988
180,25,44.5,A,62 Elliott Walk,21054
41,26,31.9,F,55 Berriman Street,4585
127,27,65.4,D,64 Laurel Avenue,23678
35,28,74.6,F,94 Willow Street,24156
31,29,148.6,D,10 Willoughby Street,850
146,30,162.6,G,25 Kossuth Place,29844
46,31,153.3,E,55 Gotham Avenue,31364
90,32,195.3,F,20 Georgia Avenue,10578
147,33,53.6,D,93 Adams Street,3256
165,34,188.1,E,56 Mill Avenue,18219
50,35,7.2,B,17 Engert Avenue,19855
162,36,35.9,C,91 Vermont Court,8949
186,37,123.8,F,12 Amber Street,24126
28,38,183.9,C,55 Sandford Street,28148
177,39,169.0,A,2 Bush Street,32300
174,40,149.1,A,37 Montieth Street,24700
63,41,56.4,E,21 Linden Boulevard,16100
17,42,109.3,D,94 Harman Street,3132
82,43,69.3,G,75 Dooley Street,16414
23,44,152.7,D,57 Boynton Place,26386
152,45,63.7,D,72 Lacon Court,32470
23,46,100.2,A,8 Neptune Court,6040
107,47,191.3,F,27 Garden Street,19727
8,48,100.2,C,82 Nassau Avenue,6314
169,49,14.1,B,12 Kaufman Place,33502
131,50,151.1,F,14 Emerald Street,27214
85,51,159.3,B,2 Jefferson Street,34143
154,52,158.3,D,51 Halsey Street,16820
36,53,148.6,A,6 Kingsland Avenue,22749
133,54,17.8,G,70 Dean Street,5372
186,55,159.7,E,89 Olive Street,17805
102,56,172.3,F,16 Kenmore Court,12658
80,57,127.3,E,5 Stryker Court,1322
197,58,145.5,E,54 Clay Street,19535
139,59,18.8,G,67 Ford Street,32318
10,60,71.9,G,62 Pershing Loop,21819
13,61,189.4,C,87 Crystal Street,31336
142,62,16.9,C,97 Highland Place,26696
185,63,91.2,B,19 Dunne Court,8986
161,64,16.0,D,71 Seigel Street,29405
42,65,50.6,D,45 Blake Court,23806
42,66,117.3,G,90 Ainslie Street,2060
97,67,189.2,F,46 Bedell Lane,23009
52,68,69.3,G,69 Monument Walk,24549
44,69,145.8,A,50 Stuart Street,6598
200,70,23.3,C,85 Malta Street,7244
36,71,68.0,D,38 Aviation Road,22433
52,72,5.4,A,72 Thomas Street,33993
196,73,118.6,F,60 Catherine Street,10847
145,74,75.2,F,81 Prospect Street,2671
195,75,65.2,B,6 McDonald Avenue,24391
83,76,164.6,G,18 Dinsmore Place,444
61,77,65.4,G,95 Bills Place,8136
13,78,159.8,B,47 Knapp Street,23262
156,79,116.8,D,17 Lombardy Street,19936
78,80,105.4,D,7 Jodie Court,26304
64,81,76.9,C,47 Fuller Place,31254
86,82,112.3,B,86 Bath Avenue,28089
181,83,68.0,E,4 Irving Place,9196
171,84,126.6,B,75 Chauncey Street,22206
13,85,107.3,B,5 Lott Street,13612
152,86,126.4,A,79 Cyrus Avenue,25254
95,87,94.9,A,34 Ryder Street,23049
21,88,35.2,C,88 Sutton Street,32283
167,89,168.7,B,5 Woodside Avenue,25963
54,90,16.9,C,18 Bancroft Place,11742
144,91,130.7,E,50 Eldert Street,3339
80,92,74.1,A,40 Varick Avenue,14728
169,93,144.6,B,81 Victor Road,30629
176,94,128.8,C,99 Voorhies Avenue,21021
60,95,106.6,F,62 Battery Avenue,15724
133,96,118.1,C,22 Walker Court,4749
40,97,197.3,D,52 Colin Place,15368
90,98,7.0,A,38 Lamont Court,20869
97,99,24.4,E,84 Maple Avenue,3215
98,100,179.1,A,95 Logan Street,21980
